…
```
## filter(): dplyr, stats
## lag():    dplyr, stats
```

#10.2 Creating tibbles


```r
as_tibble(iris)
```

```
## # A tibble: 150 × 5
##    Sepal.Length Sepal.Width Petal.Length Petal.Width Species
##           <dbl>       <dbl>        <dbl>       <dbl>  <fctr>
## 1           5.1         3.5          1.4         0.2  setosa
## 2           4.9         3.0          1.4         0.2  setosa
## 3           4.7         3.2          1.3         0.2  setosa
## 4           4.6         3.1          1.5         0.2  setosa
## 5           5.0         3.6          1.4         0.2  setosa
## 6           5.4         3.9          1.7         0.4  setosa
## 7           4.6         3.4          1.4         0.3  setosa
## 8           5.0         3.4          1.5         0.2  setosa
## 9           4.4         2.9          1.4         0.2  setosa
## 10          4.9         3.1          1.5         0.1  setosa
## # ... with 140 more rows
```
…
```r
tibble(
  a = lubridate::now() + runif(1e3) * 86400,
  b = lubridate::today() + runif(1e3) * 30,
  c = 1:1e3,
  d = runif(1e3),
  e = sample(letters, 1e3, replace = TRUE)
)
```

```
## # A tibble: 1,000 × 5
##                      a          b     c         d     e
##                 <dttm>     <date> <int>     <dbl> <chr>
## 1  2017-05-29 20:47:05 2017-06-12     1 0.9038086     n
## 2  2017-05-30 01:53:09 2017-06-19     2 0.4224085     n
## 3  2017-05-30 04:02:54 2017-06-05     3 0.1223788     i
## 4  2017-05-30 07:30:20 2017-06-07     4 0.6811990     l
## 5  2017-05-29 22:33:24 2017-06-27     5 0.2286786     m
## 6  2017-05-30 05:14:52 2017-06-24     6 0.4161954     m
## 7  2017-05-30 07:47:16 2017-06-26     7 0.6834873     k
## 8  2017-05-30 08:35:32 2017-06-21     8 0.5293672     u
## 9  2017-05-30 01:59:01 2017-05-29     9 0.7057631     u
## 10 2017-05-29 16:41:09 2017-05-30    10 0.3384146     p
## # ... with 990 more rows
```
…
