…
#13.4 Mutating joins

```r
flights2 <- flights %>% 
  select(year:day, hour, origin, dest, tailnum, carrier)
flights2
```

```
## # A tibble: 336,776 × 8
##     year month   day  hour origin  dest tailnum carrier
##    <int> <int> <int> <dbl>  <chr> <chr>   <chr>   <chr>
## 1   2013     1     1     5    EWR   IAH  N14228      UA
## 2   2013     1     1     5    LGA   IAH  N24211      UA
## 3   2013     1     1     5    JFK   MIA  N619AA      AA
## 4   2013     1     1     5    JFK   BQN  N804JB      B6
## 5   2013     1     1     5    LGA   ATL  N668DN      DL
## 6   2013     1     1     5    EWR   ORD  N39463      UA
## 7   2013     1     1     5    EWR   FLL  N516JB      B6
## 8   2013     1     1     5    LGA   IAD  N829AS      EV
## 9   2013     1     1     5    JFK   MCO  N593JB      B6
## 10  2013     1     1     5    LGA   ORD  N3ALAA      AA
## # ... with 336,766 more rows
```

```r
#flights2 %>%
  #select(-origin, -dest) %>% 
  #left_join(airlines, by = "carrier")

flights2 %>%
  select(-origin, -dest) %>% 
  mutate(name = airlines$name[match(carrier, airlines$carrier)])
```

```
## # A tibble: 336,776 × 7
##     year month   day  hour tailnum carrier                     name
##    <int> <int> <int> <dbl>   <chr>   <chr>                   <fctr>
## 1   2013     1     1     5  N14228      UA    United Air Lines Inc.
## 2   2013     1     1     5  N24211      UA    United Air Lines Inc.
## 3   2013     1     1     5  N619AA      AA   American Airlines Inc.
## 4   2013     1     1     5  N804JB      B6          JetBlue Airways
## 5   2013     1     1     5  N668DN      DL     Delta Air Lines Inc.
## 6   2013     1     1     5  N39463      UA    United Air Lines Inc.
## 7   2013     1     1     5  N516JB      B6          JetBlue Airways
## 8   2013     1     1     5  N829AS      EV ExpressJet Airlines Inc.
## 9   2013     1     1     5  N593JB      B6          JetBlue Airways
## 10  2013     1     1     5  N3ALAA      AA   American Airlines Inc.
## # ... with 336,766 more rows
```
…
```r
flights2 %>% 
  left_join(weather)
```

```
## Joining, by = c("year", "month", "day", "hour", "origin")
```

```
## # A tibble: 336,776 × 17
##     year month   day  hour origin  dest tailnum carrier  temp  dewp humid
##    <dbl> <dbl> <int> <dbl>  <chr> <chr>   <chr>   <chr> <dbl> <dbl> <dbl>
## 1   2013     1     1     5    EWR   IAH  N14228      UA    NA    NA    NA
## 2   2013     1     1     5    LGA   IAH  N24211      UA    NA    NA    NA
## 3   2013     1     1     5    JFK   MIA  N619AA      AA    NA    NA    NA
## 4   2013     1     1     5    JFK   BQN  N804JB      B6    NA    NA    NA
## 5   2013     1     1     5    LGA   ATL  N668DN      DL    NA    NA    NA
## 6   2013     1     1     5    EWR   ORD  N39463      UA    NA    NA    NA
## 7   2013     1     1     5    EWR   FLL  N516JB      B6    NA    NA    NA
## 8   2013     1     1     5    LGA   IAD  N829AS      EV    NA    NA    NA
## 9   2013     1     1     5    JFK   MCO  N593JB      B6    NA    NA    NA
## 10  2013     1     1     5    LGA   ORD  N3ALAA      AA    NA    NA    NA
## # ... with 336,766 more rows, and 6 more variables: wind_dir <dbl>,
## #   wind_speed <dbl>, wind_gust <dbl>, precip <dbl>, pressure <dbl>,
## #   visib <dbl>
```

```r
flights2 %>% 
  left_join(airports, c("dest" = "faa"))
```

```
## # A tibble: 336,776 × 14
##     year month   day  hour origin  dest tailnum carrier
##    <int> <int> <int> <dbl>  <chr> <chr>   <chr>   <chr>
## 1   2013     1     1     5    EWR   IAH  N14228      UA
## 2   2013     1     1     5    LGA   IAH  N24211      UA
## 3   2013     1     1     5    JFK   MIA  N619AA      AA
## 4   2013     1     1     5    JFK   BQN  N804JB      B6
## 5   2013     1     1     5    LGA   ATL  N668DN      DL
## 6   2013     1     1     5    EWR   ORD  N39463      UA
## 7   2013     1     1     5    EWR   FLL  N516JB      B6
## 8   2013     1     1     5    LGA   IAD  N829AS      EV
## 9   2013     1     1     5    JFK   MCO  N593JB      B6
## 10  2013     1     1     5    LGA   ORD  N3ALAA      AA
## # ... with 336,766 more rows, and 6 more variables: name <chr>, lat <dbl>,
## #   lon <dbl>, alt <int>, tz <dbl>, dst <chr>
```
…
```r
flights %>% 
  filter(dest %in% top_dest$dest)
```

```
## # A tibble: 141,145 × 16
##     year month   day dep_time dep_delay arr_time arr_delay carrier tailnum
##    <int> <int> <int>    <int>     <dbl>    <int>     <dbl>   <chr>   <chr>
## 1   2013     1     1      542         2      923        33      AA  N619AA
## 2   2013     1     1      554        -6      812       -25      DL  N668DN
## 3   2013     1     1      554        -4      740        12      UA  N39463
## 4   2013     1     1      555        -5      913        19      B6  N516JB
## 5   2013     1     1      557        -3      838        -8      B6  N593JB
## 6   2013     1     1      558        -2      753         8      AA  N3ALAA
## 7   2013     1     1      558        -2      924         7      UA  N29129
## 8   2013     1     1      558        -2      923       -14      UA  N53441
## 9   2013     1     1      559         0      702        -4      B6  N708JB
## 10  2013     1     1      600         0      851        -7      B6  N595JB
## # ... with 141,135 more rows, and 7 more variables: flight <int>,
## #   origin <chr>, dest <chr>, air_time <dbl>, distance <dbl>, hour <dbl>,
## #   minute <dbl>
```
…
```r
planes_gt100 <- 
  filter(flights) %>%
  group_by(tailnum) %>%
  count() %>%
  filter(n > 100)

flights %>%
  semi_join(planes_gt100, by = "tailnum")
```

```
## # A tibble: 229,202 × 16
##     year month   day dep_time dep_delay arr_time arr_delay carrier tailnum
##    <int> <int> <int>    <int>     <dbl>    <int>     <dbl>   <chr>   <chr>
## 1   2013     1     2       NA        NA       NA        NA      AA        
## 2   2013     1     2       NA        NA       NA        NA      UA        
## 3   2013     1     3       NA        NA       NA        NA      UA        
## 4   2013     1     3       NA        NA       NA        NA      UA        
## 5   2013     1     4       NA        NA       NA        NA      9E        
## 6   2013     1     4       NA        NA       NA        NA      9E        
## 7   2013     1     5       NA        NA       NA        NA      9E        
## 8   2013     1     7       NA        NA       NA        NA      9E        
## 9   2013     1     8       NA        NA       NA        NA      US        
## 10  2013     1     9       NA        NA       NA        NA      9E        
## # ... with 229,192 more rows, and 7 more variables: flight <int>,
## #   origin <chr>, dest <chr>, air_time <dbl>, distance <dbl>, hour <dbl>,
## #   minute <dbl>
```
…
```r
fueleconomy::vehicles %>%
  semi_join(fueleconomy::common, by = c("make", "model"))
```

```
## # A tibble: 14,531 × 12
##       id  make   model  year           class           trans
##    <int> <chr>   <chr> <int>           <chr>           <chr>
## 1   1833 Acura Integra  1986 Subcompact Cars Automatic 4-spd
## 2   1834 Acura Integra  1986 Subcompact Cars    Manual 5-spd
## 3   3037 Acura Integra  1987 Subcompact Cars Automatic 4-spd
## 4   3038 Acura Integra  1987 Subcompact Cars    Manual 5-spd
## 5   4183 Acura Integra  1988 Subcompact Cars Automatic 4-spd
## 6   4184 Acura Integra  1988 Subcompact Cars    Manual 5-spd
## 7   5303 Acura Integra  1989 Subcompact Cars Automatic 4-spd
## 8   5304 Acura Integra  1989 Subcompact Cars    Manual 5-spd
## 9   6442 Acura Integra  1990 Subcompact Cars Automatic 4-spd
## 10  6443 Acura Integra  1990 Subcompact Cars    Manual 5-spd
## # ... with 14,521 more rows, and 6 more variables: drive <chr>, cyl <int>,
## #   displ <dbl>, fuel <chr>, hwy <int>, cty <int>
```
…
