…
```
## # A tibble: 1 × 1
##      delay
##      <dbl>
## 1 12.63907
```

```r
by_day <- group_by(flights, year, month, day)
summarise(by_day, delay = mean(dep_delay, na.rm = TRUE))
```

```
## Source: local data frame [365 x 4]
## Groups: year, month [?]
## 
##     year month   day     delay
##    <int> <int> <int>     <dbl>
## 1   2013     1     1 11.548926
## 2   2013     1     2 13.858824
## 3   2013     1     3 10.987832
## 4   2013     1     4  8.951595
## 5   2013     1     5  5.732218
## 6   2013     1     6  7.148014
## 7   2013     1     7  5.417204
## 8   2013     1     8  2.553073
## 9   2013     1     9  2.276477
## 10  2013     1    10  2.844995
## # ... with 355 more rows
```
…
#5.6.2 Missing values


```r
flights %>% 
  group_by(year, month, day) %>% 
  summarise(mean = mean(dep_delay))
```

```
## Source: local data frame [365 x 4]
## Groups: year, month [?]
## 
##     year month   day  mean
##    <int> <int> <int> <dbl>
## 1   2013     1     1    NA
## 2   2013     1     2    NA
## 3   2013     1     3    NA
## 4   2013     1     4    NA
## 5   2013     1     5    NA
## 6   2013     1     6    NA
## 7   2013     1     7    NA
## 8   2013     1     8    NA
## 9   2013     1     9    NA
## 10  2013     1    10    NA
## # ... with 355 more rows
```
…
```r
not_cancelled <- flights %>% 
  filter(!is.na(dep_delay), !is.na(arr_delay))

not_cancelled %>% 
  group_by(year, month, day) %>% 
  summarise(mean = mean(dep_delay))
```

```
## Source: local data frame [365 x 4]
## Groups: year, month [?]
## 
##     year month   day      mean
##    <int> <int> <int>     <dbl>
## 1   2013     1     1 11.435620
## 2   2013     1     2 13.677802
## 3   2013     1     3 10.907778
## 4   2013     1     4  8.965859
## 5   2013     1     5  5.732218
## 6   2013     1     6  7.145959
## 7   2013     1     7  5.417204
## 8   2013     1     8  2.558296
## 9   2013     1     9  2.301232
## 10  2013     1    10  2.844995
## # ... with 355 more rows
```
…
```r
batters %>% 
  arrange(desc(ba))
```

```
## # A tibble: 18,659 × 3
##     playerID    ba    ab
##        <chr> <dbl> <int>
## 1  abramge01     1     1
## 2  banisje01     1     1
## 3  bartocl01     1     1
## 4   bassdo01     1     1
## 5  birasst01     1     2
## 6  bruneju01     1     1
## 7  burnscb01     1     1
## 8  cammaer01     1     1
## 9   campsh01     1     1
## 10 crockcl01     1     1
## # ... with 18,649 more rows
```

#5.6.4 Useful summary functions


```r
not_cancelled %>% 
  group_by(year, month, day) %>% 
  summarise(
    avg_delay1 = mean(arr_delay),
    avg_delay2 = mean(arr_delay[arr_delay > 0]) # the average positive delay
  )
```

```
## Source: local data frame [365 x 5]
## Groups: year, month [?]
## 
##     year month   day avg_delay1 avg_delay2
##    <int> <int> <int>      <dbl>      <dbl>
## 1   2013     1     1 12.6510229   32.48156
## 2   2013     1     2 12.6928879   32.02991
## 3   2013     1     3  5.7333333   27.66087
## 4   2013     1     4 -1.9328194   28.30976
## 5   2013     1     5 -1.5258020   22.55882
## 6   2013     1     6  4.2364294   24.37270
## 7   2013     1     7 -4.9473118   27.76132
## 8   2013     1     8 -3.2275785   20.78909
## 9   2013     1     9 -0.2642777   25.63415
## 10  2013     1    10 -5.8988159   27.34545
## # ... with 355 more rows
```


```r
not_cancelled %>% 
  group_by(dest) %>% 
  summarise(distance_sd = sd(distance)) %>% 
  arrange(desc(distance_sd))
```

```
## # A tibble: 104 × 2
##     dest distance_sd
##    <chr>       <dbl>
## 1    EGE   10.542765
## 2    SAN   10.350094
## 3    SFO   10.216017
## 4    HNL   10.004197
## 5    SEA    9.977993
## 6    LAS    9.907786
## 7    PDX    9.873299
## 8    PHX    9.862546
## 9    LAX    9.657195
## 10   IND    9.458066
## # ... with 94 more rows
```


```r
not_cancelled %>% 
  group_by(year, month, day) %>% 
  summarise(
    first = min(dep_time),
    last = max(dep_time)
  )
```

```
## Source: local data frame [365 x 5]
## Groups: year, month [?]
## 
##     year month   day first  last
##    <int> <int> <int> <int> <int>
## 1   2013     1     1   517  2356
## 2   2013     1     2    42  2354
## 3   2013     1     3    32  2349
## 4   2013     1     4    25  2358
## 5   2013     1     5    14  2357
## 6   2013     1     6    16  2355
## 7   2013     1     7    49  2359
## 8   2013     1     8   454  2351
## 9   2013     1     9     2  2252
## 10  2013     1    10     3  2320
## # ... with 355 more rows
```


```r
not_cancelled %>% 
  group_by(year, month, day) %>% 
  summarise(hour_perc = mean(arr_delay > 60))
```

```
## Source: local data frame [365 x 4]
## Groups: year, month [?]
## 
##     year month   day  hour_perc
##    <int> <int> <int>      <dbl>
## 1   2013     1     1 0.07220217
## 2   2013     1     2 0.08512931
## 3   2013     1     3 0.05666667
## 4   2013     1     4 0.03964758
## 5   2013     1     5 0.03486750
## 6   2013     1     6 0.04704463
## 7   2013     1     7 0.03333333
## 8   2013     1     8 0.02130045
## 9   2013     1     9 0.02015677
## 10  2013     1    10 0.01829925
## # ... with 355 more rows
```

#5.6.5 Grouping by multiple variables


```r
daily <- group_by(flights, year, month, day)
(per_day   <- summarise(daily, flights = n()))
```

```
## Source: local data frame [365 x 4]
## Groups: year, month [?]
## 
##     year month   day flights
##    <int> <int> <int>   <int>
## 1   2013     1     1     842
## 2   2013     1     2     943
## 3   2013     1     3     914
## 4   2013     1     4     915
## 5   2013     1     5     720
## 6   2013     1     6     832
## 7   2013     1     7     933
## 8   2013     1     8     899
## 9   2013     1     9     902
## 10  2013     1    10     932
## # ... with 355 more rows
```
…
2.Come up with another approach that will give you the same output as not_cancelled %>% count(dest) and not_cancelled %>% count(tailnum, wt = distance) (without using count()).


```r
not_cancelled <- flights %>% 
  filter(!is.na(dep_delay), !is.na(arr_delay))
#first
not_cancelled %>%
  count(dest)
```

```
## # A tibble: 104 × 2
##     dest     n
##    <chr> <int>
## 1    ABQ   254
## 2    ACK   264
## 3    ALB   418
## 4    ANC     8
## 5    ATL 16837
## 6    AUS  2411
## 7    AVL   261
## 8    BDL   412
## 9    BGR   358
## 10   BHM   269
## # ... with 94 more rows
```

```r
#new
not_cancelled %>%
  group_by(dest) %>%
  summarize(n = n())
```

```
## # A tibble: 104 × 2
##     dest     n
##    <chr> <int>
## 1    ABQ   254
## 2    ACK   264
## 3    ALB   418
## 4    ANC     8
## 5    ATL 16837
## 6    AUS  2411
## 7    AVL   261
## 8    BDL   412
## 9    BGR   358
## 10   BHM   269
## # ... with 94 more rows
```

```r
#first
not_cancelled %>%
  count(tailnum, wt = distance)
```

```
## # A tibble: 4,037 × 2
##    tailnum      n
##      <chr>  <dbl>
## 1   D942DN   3418
## 2   N0EGMQ 239143
## 3   N10156 109664
## 4   N102UW  25722
## 5   N103US  24619
## 6   N104UW  24616
## 7   N10575 139903
## 8   N105UW  23618
## 9   N107US  21677
## 10  N108UW  32070
## # ... with 4,027 more rows
```

```r
#new
not_cancelled %>%
  group_by(tailnum) %>%
  summarize(n = sum(distance, na.rm = TRUE))
```

```
## # A tibble: 4,037 × 2
##    tailnum      n
##      <chr>  <dbl>
## 1   D942DN   3418
## 2   N0EGMQ 239143
## 3   N10156 109664
## 4   N102UW  25722
## 5   N103US  24619
## 6   N104UW  24616
## 7   N10575 139903
## 8   N105UW  23618
## 9   N107US  21677
## 10  N108UW  32070
## # ... with 4,027 more rows
```
3.Our definition of cancelled flights (is.na(dep_delay) | is.na(arr_delay) ) is slightly suboptimal. Why? Which is the most important column?

There are no flights which arrived but did not depart, so we can just use !is.na(dep_delay).

4.Look at the number of cancelled flights per day. Is there a pattern? Is the proportion of cancelled flights related to the average delay?


```r
flights %>%
  filter(is.na(dep_delay)) %>%
  count(day)
```

```
## # A tibble: 31 × 2
##      day     n
##    <int> <int>
## 1      1   246
## 2      2   250
## 3      3   109
## 4      4    82
## 5      5   226
## 6      6   296
## 7      7   318
## 8      8   921
## 9      9   593
## 10    10   535
## # ... with 21 more rows
```

```r
flights %>%
  group_by(day) %>%
  summarize(prop_canceled = sum(is.na(dep_delay)) / n(),
            avg_delay = mean(dep_delay, na.rm = TRUE))
```

```
## # A tibble: 31 × 3
##      day prop_canceled avg_delay
##    <int>         <dbl>     <dbl>
## 1      1   0.022290685 14.172660
## 2      2   0.023131014 14.115552
## 3      3   0.009722594 10.811295
## 4      4   0.007414775  5.789651
## 5      5   0.020814146  7.820824
## 6      6   0.026765530  6.990244
## 7      7   0.028948566 14.339177
## 8      8   0.081714134 21.760773
## 9      9   0.054619140 14.644680
## 10    10   0.047652979 18.300505
## # ... with 21 more rows
```
…
#5.7 Grouped mutates (and filters)


```r
#Find all groups bigger than a threshold:

popular_dests <- flights %>% 
  group_by(dest) %>% 
  filter(n() > 365)
popular_dests
```

```
## Source: local data frame [332,577 x 19]
## Groups: dest [77]
## 
##     year month   day dep_time sched_dep_time dep_delay arr_time
##    <int> <int> <int>    <int>          <int>     <dbl>    <int>
## 1   2013     1     1      517            515         2      830
## 2   2013     1     1      533            529         4      850
## 3   2013     1     1      542            540         2      923
## 4   2013     1     1      544            545        -1     1004
## 5   2013     1     1      554            600        -6      812
## 6   2013     1     1      554            558        -4      740
## 7   2013     1     1      555            600        -5      913
## 8   2013     1     1      557            600        -3      709
## 9   2013     1     1      557            600        -3      838
## 10  2013     1     1      558            600        -2      753
## # ... with 332,567 more rows, and 12 more variables: sched_arr_time <int>,
## #   arr_delay <dbl>, carrier <chr>, flight <int>, tailnum <chr>,
## #   origin <chr>, dest <chr>, air_time <dbl>, distance <dbl>, hour <dbl>,
## #   minute <dbl>, time_hour <dttm>
```
…
2.Which plane (tailnum) has the worst on-time record?
I define “on-time” in this function as arriving within 30 minutes of the scheduled arrival time.


```r
flights %>%
  group_by(tailnum) %>%
  summarize(prop_on_time = sum(arr_delay <= 30, na.rm = TRUE) / n(),
            mean_arr_delay = mean(arr_delay, na.rm = TRUE),
            flights = n()) %>%
  arrange(prop_on_time, desc(mean_arr_delay))
```

```
## # A tibble: 4,044 × 4
##    tailnum prop_on_time mean_arr_delay flights
##      <chr>        <dbl>          <dbl>   <int>
## 1   N844MH            0            320       1
## 2   N911DA            0            294       1
## 3   N922EV            0            276       1
## 4   N587NW            0            264       1
## 5   N851NW            0            219       1
## 6   N928DN            0            201       1
## 7   N7715E            0            188       1
## 8   N654UA            0            185       1
## 9   N427SW            0            157       1
## 10  N136DL            0            146       1
## # ... with 4,034 more rows
```
…
7.Find all destinations that are flown by at least two carriers. Use that information to rank the carriers.

8.For each plane, count the number of flights before the first delay of greater than 1 hour
This uses a grouped summary operation. First I group by plane (tailnum), then I create a variable that defines the row number within each plane. I then filter the data to only include flights with delays longer than an hour, and use summarize() in conjunction with first() to find for each plane the row_num of the first flight with an 1+ hour delay. I subtract 1 from that value to count the number of flights before the first delay, rather than including the first flight with the hour or more delay.

```r
flights %>%
  group_by(tailnum) %>%
  mutate(row_num = row_number()) %>%
  filter(arr_delay > 60) %>%
  summarize(first_hour_delay = first(row_num) - 1)
```

```
## # A tibble: 3,371 × 2
##    tailnum first_hour_delay
##      <chr>            <dbl>
## 1   D942DN                0
## 2   N0EGMQ                0
## 3   N10156                9
## 4   N102UW               33
## 5   N104UW                6
## 6   N10575                0
## 7   N105UW               34
## 8   N107US               29
## 9   N108UW                9
## 10  N109UW               15
## # ... with 3,361 more rows
```
…
