…
```r
sim1_dist <- function(a1, a2) {
  measure_distance(c(a1, a2), sim1)
}

models <- models %>% 
  mutate(dist = purrr::map2_dbl(a1, a2, sim1_dist))
models
```

```
## # A tibble: 250 x 3
##            a1         a2      dist
##         <dbl>      <dbl>     <dbl>
##  1  13.231818  2.3593594 10.949309
##  2  -1.499313 -0.4933978 21.136032
##  3   1.052334  3.4389468  6.349939
##  4  -9.521837 -1.9019021 37.319822
##  5 -19.585593  1.4382320 27.319615
##  6 -14.323648 -3.5875410 52.182411
##  7  24.374830  1.3171513 16.391120
##  8 -19.020176  2.2037566 22.508869
##  9  -7.194261 -1.2172443 30.929745
## 10  -4.495695 -0.6739424 25.056263
## # ... with 240 more rows
```
…
