…
2.What does the direction argument to fill() do?
With fill, it determines whether NA values should be replaced by the previous non-missing value ("down") or the next non-missing value ("up").

#12.6 Case Study


```r
who
```

```
## # A tibble: 7,240 × 60
##        country  iso2  iso3  year new_sp_m014 new_sp_m1524 new_sp_m2534
##          <chr> <chr> <chr> <int>       <int>        <int>        <int>
## 1  Afghanistan    AF   AFG  1980          NA           NA           NA
## 2  Afghanistan    AF   AFG  1981          NA           NA           NA
## 3  Afghanistan    AF   AFG  1982          NA           NA           NA
## 4  Afghanistan    AF   AFG  1983          NA           NA           NA
## 5  Afghanistan    AF   AFG  1984          NA           NA           NA
## 6  Afghanistan    AF   AFG  1985          NA           NA           NA
## 7  Afghanistan    AF   AFG  1986          NA           NA           NA
## 8  Afghanistan    AF   AFG  1987          NA           NA           NA
## 9  Afghanistan    AF   AFG  1988          NA           NA           NA
## 10 Afghanistan    AF   AFG  1989          NA           NA           NA
## # ... with 7,230 more rows, and 53 more variables: new_sp_m3544 <int>,
## #   new_sp_m4554 <int>, new_sp_m5564 <int>, new_sp_m65 <int>,
## #   new_sp_f014 <int>, new_sp_f1524 <int>, new_sp_f2534 <int>,
## #   new_sp_f3544 <int>, new_sp_f4554 <int>, new_sp_f5564 <int>,
## #   new_sp_f65 <int>, new_sn_m014 <int>, new_sn_m1524 <int>,
## #   new_sn_m2534 <int>, new_sn_m3544 <int>, new_sn_m4554 <int>,
## #   new_sn_m5564 <int>, new_sn_m65 <int>, new_sn_f014 <int>,
## #   new_sn_f1524 <int>, new_sn_f2534 <int>, new_sn_f3544 <int>,
## #   new_sn_f4554 <int>, new_sn_f5564 <int>, new_sn_f65 <int>,
…
```r
who1 <- who %>% 
  gather(new_sp_m014:newrel_f65, key = "key", value = "cases", na.rm = TRUE)
who1
```

```
## # A tibble: 76,046 × 6
##        country  iso2  iso3  year         key cases
## *        <chr> <chr> <chr> <int>       <chr> <int>
## 1  Afghanistan    AF   AFG  1997 new_sp_m014     0
## 2  Afghanistan    AF   AFG  1998 new_sp_m014    30
## 3  Afghanistan    AF   AFG  1999 new_sp_m014     8
## 4  Afghanistan    AF   AFG  2000 new_sp_m014    52
## 5  Afghanistan    AF   AFG  2001 new_sp_m014   129
## 6  Afghanistan    AF   AFG  2002 new_sp_m014    90
## 7  Afghanistan    AF   AFG  2003 new_sp_m014   127
## 8  Afghanistan    AF   AFG  2004 new_sp_m014   139
## 9  Afghanistan    AF   AFG  2005 new_sp_m014   151
## 10 Afghanistan    AF   AFG  2006 new_sp_m014   193
## # ... with 76,036 more rows
```

```r
who1 %>% 
  count(key)
```

```
## # A tibble: 56 × 2
##             key     n
##           <chr> <int>
## 1   new_ep_f014  1032
## 2  new_ep_f1524  1021
## 3  new_ep_f2534  1021
## 4  new_ep_f3544  1021
## 5  new_ep_f4554  1017
## 6  new_ep_f5564  1017
## 7    new_ep_f65  1014
## 8   new_ep_m014  1038
## 9  new_ep_m1524  1026
## 10 new_ep_m2534  1020
## # ... with 46 more rows
```

```r
who2 <- who1 %>% 
  mutate(key = stringr::str_replace(key, "newrel", "new_rel"))
who2
```

```
## # A tibble: 76,046 × 6
##        country  iso2  iso3  year         key cases
##          <chr> <chr> <chr> <int>       <chr> <int>
## 1  Afghanistan    AF   AFG  1997 new_sp_m014     0
## 2  Afghanistan    AF   AFG  1998 new_sp_m014    30
## 3  Afghanistan    AF   AFG  1999 new_sp_m014     8
## 4  Afghanistan    AF   AFG  2000 new_sp_m014    52
## 5  Afghanistan    AF   AFG  2001 new_sp_m014   129
## 6  Afghanistan    AF   AFG  2002 new_sp_m014    90
## 7  Afghanistan    AF   AFG  2003 new_sp_m014   127
## 8  Afghanistan    AF   AFG  2004 new_sp_m014   139
## 9  Afghanistan    AF   AFG  2005 new_sp_m014   151
## 10 Afghanistan    AF   AFG  2006 new_sp_m014   193
## # ... with 76,036 more rows
```

```r
who3 <- who2 %>% 
  separate(key, c("new", "type", "sexage"), sep = "_")
who3
```

```
## # A tibble: 76,046 × 8
##        country  iso2  iso3  year   new  type sexage cases
## *        <chr> <chr> <chr> <int> <chr> <chr>  <chr> <int>
## 1  Afghanistan    AF   AFG  1997   new    sp   m014     0
## 2  Afghanistan    AF   AFG  1998   new    sp   m014    30
## 3  Afghanistan    AF   AFG  1999   new    sp   m014     8
## 4  Afghanistan    AF   AFG  2000   new    sp   m014    52
## 5  Afghanistan    AF   AFG  2001   new    sp   m014   129
## 6  Afghanistan    AF   AFG  2002   new    sp   m014    90
## 7  Afghanistan    AF   AFG  2003   new    sp   m014   127
## 8  Afghanistan    AF   AFG  2004   new    sp   m014   139
## 9  Afghanistan    AF   AFG  2005   new    sp   m014   151
## 10 Afghanistan    AF   AFG  2006   new    sp   m014   193
## # ... with 76,036 more rows
```
…
```r
who4 <- who3 %>% 
  select(-new, -iso2, -iso3)

who5 <- who4 %>% 
  separate(sexage, c("sex", "age"), sep = 1)
who5
```

```
## # A tibble: 76,046 × 6
##        country  year  type   sex   age cases
## *        <chr> <int> <chr> <chr> <chr> <int>
## 1  Afghanistan  1997    sp     m   014     0
## 2  Afghanistan  1998    sp     m   014    30
## 3  Afghanistan  1999    sp     m   014     8
## 4  Afghanistan  2000    sp     m   014    52
## 5  Afghanistan  2001    sp     m   014   129
## 6  Afghanistan  2002    sp     m   014    90
## 7  Afghanistan  2003    sp     m   014   127
## 8  Afghanistan  2004    sp     m   014   139
## 9  Afghanistan  2005    sp     m   014   151
## 10 Afghanistan  2006    sp     m   014   193
## # ... with 76,036 more rows
```

```r
#briefly
who %>%
  gather(code, value, new_sp_m014:newrel_f65, na.rm = TRUE) %>% 
  mutate(code = stringr::str_replace(code, "newrel", "new_rel")) %>%
  separate(code, c("new", "var", "sexage")) %>% 
  select(-new, -iso2, -iso3) %>% 
  separate(sexage, c("sex", "age"), sep = 1)
```

```
## # A tibble: 76,046 × 6
##        country  year   var   sex   age value
## *        <chr> <int> <chr> <chr> <chr> <int>
## 1  Afghanistan  1997    sp     m   014     0
## 2  Afghanistan  1998    sp     m   014    30
## 3  Afghanistan  1999    sp     m   014     8
## 4  Afghanistan  2000    sp     m   014    52
## 5  Afghanistan  2001    sp     m   014   129
## 6  Afghanistan  2002    sp     m   014    90
## 7  Afghanistan  2003    sp     m   014   127
## 8  Afghanistan  2004    sp     m   014   139
## 9  Afghanistan  2005    sp     m   014   151
## 10 Afghanistan  2006    sp     m   014   193
## # ... with 76,036 more rows
```
…
```r
airports
```

```
## # A tibble: 1,397 × 7
##      faa                           name      lat        lon   alt    tz
##    <chr>                          <chr>    <dbl>      <dbl> <int> <dbl>
## 1    04G              Lansdowne Airport 41.13047  -80.61958  1044    -5
## 2    06A  Moton Field Municipal Airport 32.46057  -85.68003   264    -5
## 3    06C            Schaumburg Regional 41.98934  -88.10124   801    -6
## 4    06N                Randall Airport 41.43191  -74.39156   523    -5
## 5    09J          Jekyll Island Airport 31.07447  -81.42778    11    -4
## 6    0A9 Elizabethton Municipal Airport 36.37122  -82.17342  1593    -4
## 7    0G6        Williams County Airport 41.46731  -84.50678   730    -5
## 8    0G7  Finger Lakes Regional Airport 42.88356  -76.78123   492    -5
## 9    0P2   Shoestring Aviation Airfield 39.79482  -76.64719  1000    -5
## 10   0S9          Jefferson County Intl 48.05381 -122.81064   108    -8
## # ... with 1,387 more rows, and 1 more variables: dst <chr>
```

```r
planes
```

```
## # A tibble: 3,322 × 9
##    tailnum  year                    type     manufacturer     model
##      <chr> <int>                   <chr>            <chr>     <chr>
## 1   N10156  2004 Fixed wing multi engine          EMBRAER EMB-145XR
## 2   N102UW  1998 Fixed wing multi engine AIRBUS INDUSTRIE  A320-214
## 3   N103US  1999 Fixed wing multi engine AIRBUS INDUSTRIE  A320-214
## 4   N104UW  1999 Fixed wing multi engine AIRBUS INDUSTRIE  A320-214
## 5   N10575  2002 Fixed wing multi engine          EMBRAER EMB-145LR
## 6   N105UW  1999 Fixed wing multi engine AIRBUS INDUSTRIE  A320-214
## 7   N107US  1999 Fixed wing multi engine AIRBUS INDUSTRIE  A320-214
## 8   N108UW  1999 Fixed wing multi engine AIRBUS INDUSTRIE  A320-214
## 9   N109UW  1999 Fixed wing multi engine AIRBUS INDUSTRIE  A320-214
## 10  N110UW  1999 Fixed wing multi engine AIRBUS INDUSTRIE  A320-214
## # ... with 3,312 more rows, and 4 more variables: engines <int>,
## #   seats <int>, speed <int>, engine <chr>
```
…
