R-Club-Sep-27
…
23.3.2 Residuals

sim1 <- sim1 %>% 
  add_residuals(sim1_mod)
sim1

## # A tibble: 30 x 3
##        x         y        resid
##    <int>     <dbl>        <dbl>
##  1     1  4.199913 -2.072442018
##  2     1  7.510634  1.238279125
##  3     1  2.125473 -4.146882207
##  4     2  8.988857  0.664969362
##  5     2 10.243105  1.919217378
##  6     2 11.296823  2.972935148
##  7     3  7.356365 -3.019056466
##  8     3 10.505349  0.129928252
##  9     3 10.511601  0.136179642
## 10     4 12.434589  0.007634878
## # ... with 20 more rows
…
