…
#23.3.2 Residuals


```r
sim1 <- sim1 %>% 
  add_residuals(sim1_mod)
sim1
```

```
## # A tibble: 30 x 3
##        x         y        resid
##    <int>     <dbl>        <dbl>
##  1     1  4.199913 -2.072442018
##  2     1  7.510634  1.238279125
##  3     1  2.125473 -4.146882207
##  4     2  8.988857  0.664969362
##  5     2 10.243105  1.919217378
##  6     2 11.296823  2.972935148
##  7     3  7.356365 -3.019056466
##  8     3 10.505349  0.129928252
##  9     3 10.511601  0.136179642
## 10     4 12.434589  0.007634878
## # ... with 20 more rows
```
…
```r
mod1 <- lm(y ~ x1 + x2, data = sim3)
mod2 <- lm(y ~ x1 * x2, data = sim3)
```


```r
grid <- sim3 %>% 
  data_grid(x1, x2) %>% 
  gather_predictions(mod1, mod2)
grid
```

```
## # A tibble: 80 x 4
##    model    x1     x2     pred
##    <chr> <int> <fctr>    <dbl>
##  1  mod1     1      a 1.674928
##  2  mod1     1      b 4.562739
##  3  mod1     1      c 6.480664
##  4  mod1     1      d 4.034515
##  5  mod1     2      a 1.478190
##  6  mod1     2      b 4.366001
##  7  mod1     2      c 6.283926
##  8  mod1     2      d 3.837777
##  9  mod1     3      a 1.281453
## 10  mod1     3      b 4.169263
## # ... with 70 more rows
```
…
```r
mod1 <- lm(y ~ x1 + x2, data = sim4)
mod2 <- lm(y ~ x1 * x2, data = sim4)

grid <- sim4 %>% 
  data_grid(
    x1 = seq_range(x1, 5), 
    x2 = seq_range(x2, 5) 
  ) %>% 
  gather_predictions(mod1, mod2)
grid
```

```
## # A tibble: 50 x 4
##    model    x1    x2       pred
##    <chr> <dbl> <dbl>      <dbl>
##  1  mod1  -1.0  -1.0  0.9963094
##  2  mod1  -1.0  -0.5 -0.3949484
##  3  mod1  -1.0   0.0 -1.7862061
##  4  mod1  -1.0   0.5 -3.1774639
##  5  mod1  -1.0   1.0 -4.5687216
##  6  mod1  -0.5  -1.0  1.9071424
##  7  mod1  -0.5  -0.5  0.5158847
##  8  mod1  -0.5   0.0 -0.8753731
##  9  mod1  -0.5   0.5 -2.2666308
## 10  mod1  -0.5   1.0 -3.6578886
## # ... with 40 more rows
```
…
